{
    "astrumPaths": [
        "astrum/**/*.html",
        "astrum/**/*.md",
        "astrum/data.json"
    ],
    "iconPath": "astrum/svg-icons/*.svg",
    "imagesPath": "astrum/images",
    "astrumCssSource": [
        "../SmartDeployContent/Style/SmartDeploy.css",
        "../wp-content/themes/aaika/core/assets/css/animate.css",
        "../wp-content/themes/aaika/core/assets/css/font-awesome.min.css",
        "../wp-content/themes/aaika/core/assets/css/simple-line-icons.css",
        "../wp-content/themes/aaika/assets/css/reset.css",
        "../wp-content/themes/aaika/assets/css/component.css",
        "../wp-content/themes/aaika/assets/css/flexslider.css",
        "../wp-content/themes/aaika/assets/css/devn_forms.css",
        "../wp-content/themes/aaika/assets/css/darktooltip.css",
        "../wp-content/themes/aaika/style.css",
        "../wp-content/plugins/js_composer/assets/css/js_composer.min.css",
        "../wp-content/themes/aaika/assets/css/devn.css",
        "../wp-content/themes/aaika/assets/css/bootstrap3/css/bootstrap.min.gsr.css",
        "../wp-content/themes/aaika/assets/css/default.css",
        "../wp-content/themes/aaika/assets/css/responsive.css",
        "../SmartDeployContent/Style/RegistrationProcess.css",
        "../wp-content/themes/aaika/assets/css/smartdeploy-custom.css"
    ],
    "astrumCssDest": "astrum/css/from-wordpress",
    "customCss": "astrum/css/camp-shared.css"
}